module github.com/onsi/gomega

require (
	github.com/fsnotify/fsnotify v1.4.7 // indirect
	github.com/golang/protobuf v1.2.0
	github.com/hpcloud/tail v1.0.0 // indirect
	github.com/onsi/ginkgo v1.6.0
	golang.org/x/net v0.0.0-20180906233101-161cd47e91fd
	golang.org/x/sync v0.0.0-20180314180146-1d60e4601c6f // indirect
	golang.org/x/sys v0.0.0-20180909124046-d0be0721c37e // indirect
	gitlab.com/parallelcoin/node/text v0.3.0 // indirect
	gopkg.in/fsnotify.v1 v1.4.7 // indirect
	gopkg.in/tomb.v1 v1.0.0-20141024135613-dd632973f1e7 // indirect
	gopkg.in/yaml.v2 v2.2.1
)
