module github.com/btcsuite/goleveldb

require (
	github.com/btcsuite/snappy-go v1.0.0
	github.com/onsi/ginkgo v1.6.0
	github.com/onsi/gomega v1.4.1
	golang.org/x/net v0.0.0-20180719180050-a680a1efc54d // indirect
	gitlab.com/parallelcoin/node/text v0.3.0 // indirect
	gopkg.in/yaml.v2 v2.2.1 // indirect
)
